QuSoC/QuSoC.Tests/SimResults/BlinkerSimTest.vcd
$date
Thursday, 15 October 2020 9:04:25 PM
$end
$version
Quokka VCD Generator
$end
$timescale
1s
$end
$scope module TOP $end
$scope module Control $end
$var wire 1 TOP_Control_Clock TOP_Control_Clock $end
$upscope
$end
$scope module Inputs $end
$upscope
$end
$scope module Outputs $end
$var wire 32 TOP_Outputs_Counter TOP_Outputs_Counter[31:0] $end
$upscope
$end
$scope module CPU $end
$scope module Inputs $end
$var wire 32 TOP_CPU_Inputs_BaseAddress TOP_CPU_Inputs_BaseAddress[31:0] $end
$var wire 32 TOP_CPU_Inputs_MemReadData TOP_CPU_Inputs_MemReadData[31:0] $end
$var wire 1 TOP_CPU_Inputs_MemReady TOP_CPU_Inputs_MemReady $end
$var wire 1 TOP_CPU_Inputs_ExtIRQ TOP_CPU_Inputs_ExtIRQ $end
$upscope
$end
$scope module Outputs $end
$var wire 1 TOP_CPU_Outputs_IsHalted TOP_CPU_Outputs_IsHalted $end
$var wire 32 TOP_CPU_Outputs_MemWriteData TOP_CPU_Outputs_MemWriteData[31:0] $end
$var wire 3 TOP_CPU_Outputs_MemAccessMode TOP_CPU_Outputs_MemAccessMode[2:0] $end
$var wire 1 TOP_CPU_Outputs_MemRead TOP_CPU_Outputs_MemRead $end
$var wire 1 TOP_CPU_Outputs_MemWrite TOP_CPU_Outputs_MemWrite $end
$var wire 32 TOP_CPU_Outputs_MemAddress TOP_CPU_Outputs_MemAddress[31:0] $end
$upscope
$end
$scope module ID $end
$scope module Inputs $end
$var wire 32 TOP_CPU_ID_Inputs_Instruction TOP_CPU_ID_Inputs_Instruction[31:0] $end
$upscope
$end
$scope module Outputs $end
$var wire 7 TOP_CPU_ID_Outputs_OpCode TOP_CPU_ID_Outputs_OpCode[6:0] $end
$var wire 5 TOP_CPU_ID_Outputs_RD TOP_CPU_ID_Outputs_RD[4:0] $end
$var wire 5 TOP_CPU_ID_Outputs_RS1 TOP_CPU_ID_Outputs_RS1[4:0] $end
$var wire 5 TOP_CPU_ID_Outputs_RS2 TOP_CPU_ID_Outputs_RS2[4:0] $end
$var wire 3 TOP_CPU_ID_Outputs_Funct3 TOP_CPU_ID_Outputs_Funct3[2:0] $end
$var wire 7 TOP_CPU_ID_Outputs_Funct7 TOP_CPU_ID_Outputs_Funct7[6:0] $end
$var wire 32 TOP_CPU_ID_Outputs_RTypeImm TOP_CPU_ID_Outputs_RTypeImm[31:0] $end
$var wire 32 TOP_CPU_ID_Outputs_ITypeImm TOP_CPU_ID_Outputs_ITypeImm[31:0] $end
$var wire 32 TOP_CPU_ID_Outputs_STypeImm TOP_CPU_ID_Outputs_STypeImm[31:0] $end
$var wire 32 TOP_CPU_ID_Outputs_BTypeImm TOP_CPU_ID_Outputs_BTypeImm[31:0] $end
$var wire 32 TOP_CPU_ID_Outputs_UTypeImm TOP_CPU_ID_Outputs_UTypeImm[31:0] $end
$var wire 32 TOP_CPU_ID_Outputs_JTypeImm TOP_CPU_ID_Outputs_JTypeImm[31:0] $end
$var wire 5 TOP_CPU_ID_Outputs_SHAMT TOP_CPU_ID_Outputs_SHAMT[4:0] $end
$var wire 1 TOP_CPU_ID_Outputs_SHARITH TOP_CPU_ID_Outputs_SHARITH $end
$var wire 1 TOP_CPU_ID_Outputs_SUB TOP_CPU_ID_Outputs_SUB $end
$var string 1 TOP_CPU_ID_Outputs_OpTypeCodeToString TOP_CPU_ID_Outputs_OpTypeCodeToString $end
$var wire 7 TOP_CPU_ID_Outputs_OpTypeCode TOP_CPU_ID_Outputs_OpTypeCode[6:0] $end
$var string 1 TOP_CPU_ID_Outputs_OPIMMCodeToString TOP_CPU_ID_Outputs_OPIMMCodeToString $end
$var wire 3 TOP_CPU_ID_Outputs_OPIMMCode TOP_CPU_ID_Outputs_OPIMMCode[2:0] $end
$var string 1 TOP_CPU_ID_Outputs_OPCodeToString TOP_CPU_ID_Outputs_OPCodeToString $end
$var wire 3 TOP_CPU_ID_Outputs_OPCode TOP_CPU_ID_Outputs_OPCode[2:0] $end
$var string 1 TOP_CPU_ID_Outputs_BranchTypeCodeToString TOP_CPU_ID_Outputs_BranchTypeCodeToString $end
$var wire 3 TOP_CPU_ID_Outputs_BranchTypeCode TOP_CPU_ID_Outputs_BranchTypeCode[2:0] $end
$var string 1 TOP_CPU_ID_Outputs_LoadTypeCodeToString TOP_CPU_ID_Outputs_LoadTypeCodeToString $end
$var wire 3 TOP_CPU_ID_Outputs_LoadTypeCode TOP_CPU_ID_Outputs_LoadTypeCode[2:0] $end
$var string 1 TOP_CPU_ID_Outputs_SysTypeCodeToString TOP_CPU_ID_Outputs_SysTypeCodeToString $end
$var wire 3 TOP_CPU_ID_Outputs_SysTypeCode TOP_CPU_ID_Outputs_SysTypeCode[2:0] $end
$var string 1 TOP_CPU_ID_Outputs_RetTypeCodeToString TOP_CPU_ID_Outputs_RetTypeCodeToString $end
$var wire 5 TOP_CPU_ID_Outputs_RetTypeCode TOP_CPU_ID_Outputs_RetTypeCode[4:0] $end
$var string 1 TOP_CPU_ID_Outputs_IRQTypeCodeToString TOP_CPU_ID_Outputs_IRQTypeCodeToString $end
$var wire 4 TOP_CPU_ID_Outputs_IRQTypeCode TOP_CPU_ID_Outputs_IRQTypeCode[3:0] $end
$var string 1 TOP_CPU_ID_Outputs_SystemCodeToString TOP_CPU_ID_Outputs_SystemCodeToString $end
$var wire 3 TOP_CPU_ID_Outputs_SystemCode TOP_CPU_ID_Outputs_SystemCode[2:0] $end
$var string 1 TOP_CPU_ID_Outputs_CSRAddressToString TOP_CPU_ID_Outputs_CSRAddressToString $end
$var wire 12 TOP_CPU_ID_Outputs_CSRAddress TOP_CPU_ID_Outputs_CSRAddress[11:0] $end
$var wire 1 TOP_CPU_ID_Outputs_CSRWE TOP_CPU_ID_Outputs_CSRWE $end
$upscope
$end
$upscope
$end
$scope module Regs $end
$scope module Inputs $end
$var wire 1 TOP_CPU_Regs_Inputs_Read TOP_CPU_Regs_Inputs_Read $end
$var wire 5 TOP_CPU_Regs_Inputs_RS1Addr TOP_CPU_Regs_Inputs_RS1Addr[4:0] $end
$var wire 5 TOP_CPU_Regs_Inputs_RS2Addr TOP_CPU_Regs_Inputs_RS2Addr[4:0] $end
$var wire 5 TOP_CPU_Regs_Inputs_RD TOP_CPU_Regs_Inputs_RD[4:0] $end
$var wire 1 TOP_CPU_Regs_Inputs_WE TOP_CPU_Regs_Inputs_WE $end
$var wire 32 TOP_CPU_Regs_Inputs_WriteData TOP_CPU_Regs_Inputs_WriteData[31:0] $end
$upscope
$end
$scope module Outputs $end
$var wire 32 TOP_CPU_Regs_Outputs_RS1 TOP_CPU_Regs_Outputs_RS1[31:0] $end
$var wire 32 TOP_CPU_Regs_Outputs_RS2 TOP_CPU_Regs_Outputs_RS2[31:0] $end
$var wire 1 TOP_CPU_Regs_Outputs_Ready TOP_CPU_Regs_Outputs_Ready $end
$upscope
$end
$scope module State $end
$var wire 32 TOP_CPU_Regs_State_ReadData TOP_CPU_Regs_State_ReadData[31:0] $end
$var wire 8 TOP_CPU_Regs_State_Mode TOP_CPU_Regs_State_Mode[7:0] $end
$var wire 32 TOP_CPU_Regs_State_RS1 TOP_CPU_Regs_State_RS1[31:0] $end
$var wire 32 TOP_CPU_Regs_State_RS2 TOP_CPU_Regs_State_RS2[31:0] $end
$var wire 1 TOP_CPU_Regs_State_Ready TOP_CPU_Regs_State_Ready $end
$upscope
$end
$scope module NextState $end
$var wire 32 TOP_CPU_Regs_NextState_ReadData TOP_CPU_Regs_NextState_ReadData[31:0] $end
$var wire 8 TOP_CPU_Regs_NextState_Mode TOP_CPU_Regs_NextState_Mode[7:0] $end
$var wire 32 TOP_CPU_Regs_NextState_RS1 TOP_CPU_Regs_NextState_RS1[31:0] $end
$var wire 32 TOP_CPU_Regs_NextState_RS2 TOP_CPU_Regs_NextState_RS2[31:0] $end
$var wire 1 TOP_CPU_Regs_NextState_Ready TOP_CPU_Regs_NextState_Ready $end
$upscope
$end
$upscope
$end
$scope module ALU $end
$scope module Inputs $end
$var wire 32 TOP_CPU_ALU_Inputs_Op1 TOP_CPU_ALU_Inputs_Op1[31:0] $end
$var wire 32 TOP_CPU_ALU_Inputs_Op2 TOP_CPU_ALU_Inputs_Op2[31:0] $end
$var wire 5 TOP_CPU_ALU_Inputs_SHAMT TOP_CPU_ALU_Inputs_SHAMT[4:0] $end
$upscope
$end
$scope module Outputs $end
$var wire 32 TOP_CPU_ALU_Outputs_ADD TOP_CPU_ALU_Outputs_ADD[31:0] $end
$var wire 32 TOP_CPU_ALU_Outputs_SUB TOP_CPU_ALU_Outputs_SUB[31:0] $end
$var wire 32 TOP_CPU_ALU_Outputs_resAND TOP_CPU_ALU_Outputs_resAND[31:0] $end
$var wire 32 TOP_CPU_ALU_Outputs_resOR TOP_CPU_ALU_Outputs_resOR[31:0] $end
$var wire 32 TOP_CPU_ALU_Outputs_resXOR TOP_CPU_ALU_Outputs_resXOR[31:0] $end
$var wire 32 TOP_CPU_ALU_Outputs_SHLL TOP_CPU_ALU_Outputs_SHLL[31:0] $end
$var wire 32 TOP_CPU_ALU_Outputs_SHRL TOP_CPU_ALU_Outputs_SHRL[31:0] $end
$var wire 32 TOP_CPU_ALU_Outputs_SHRA TOP_CPU_ALU_Outputs_SHRA[31:0] $end
$upscope
$end
$upscope
$end
$scope module CMP $end
$scope module Inputs $end
$var wire 32 TOP_CPU_CMP_Inputs_Lhs TOP_CPU_CMP_Inputs_Lhs[31:0] $end
$var wire 32 TOP_CPU_CMP_Inputs_Rhs TOP_CPU_CMP_Inputs_Rhs[31:0] $end
$upscope
$end
$scope module Outputs $end
$var wire 1 TOP_CPU_CMP_Outputs_EQ TOP_CPU_CMP_Outputs_EQ $end
$var wire 1 TOP_CPU_CMP_Outputs_NE TOP_CPU_CMP_Outputs_NE $end
$var wire 1 TOP_CPU_CMP_Outputs_GTU TOP_CPU_CMP_Outputs_GTU $end
$var wire 1 TOP_CPU_CMP_Outputs_LTU TOP_CPU_CMP_Outputs_LTU $end
$var wire 1 TOP_CPU_CMP_Outputs_GTS TOP_CPU_CMP_Outputs_GTS $end
$var wire 1 TOP_CPU_CMP_Outputs_LTS TOP_CPU_CMP_Outputs_LTS $end
$upscope
$end
$upscope
$end
$scope module State $end
$var string 1 TOP_CPU_State_StateToString TOP_CPU_State_StateToString $end
$var wire 3 TOP_CPU_State_State TOP_CPU_State_State[2:0] $end
$var string 1 TOP_CPU_State_HaltCodeToString TOP_CPU_State_HaltCodeToString $end
$var wire 4 TOP_CPU_State_HaltCode TOP_CPU_State_HaltCode[3:0] $end
$var wire 32 TOP_CPU_State_Instruction TOP_CPU_State_Instruction[31:0] $end
$var wire 1 TOP_CPU_State_WBDataReady TOP_CPU_State_WBDataReady $end
$var wire 32 TOP_CPU_State_WBData TOP_CPU_State_WBData[31:0] $end
$var wire 32 TOP_CPU_State_PC TOP_CPU_State_PC[31:0] $end
$var wire 32 TOP_CPU_State_PCOffset TOP_CPU_State_PCOffset[31:0] $end
$upscope
$end
$scope module NextState $end
$var string 1 TOP_CPU_NextState_StateToString TOP_CPU_NextState_StateToString $end
$var wire 3 TOP_CPU_NextState_State TOP_CPU_NextState_State[2:0] $end
$var string 1 TOP_CPU_NextState_HaltCodeToString TOP_CPU_NextState_HaltCodeToString $end
$var wire 4 TOP_CPU_NextState_HaltCode TOP_CPU_NextState_HaltCode[3:0] $end
$var wire 32 TOP_CPU_NextState_Instruction TOP_CPU_NextState_Instruction[31:0] $end
$var wire 1 TOP_CPU_NextState_WBDataReady TOP_CPU_NextState_WBDataReady $end
$var wire 32 TOP_CPU_NextState_WBData TOP_CPU_NextState_WBData[31:0] $end
$var wire 32 TOP_CPU_NextState_PC TOP_CPU_NextState_PC[31:0] $end
$var wire 32 TOP_CPU_NextState_PCOffset TOP_CPU_NextState_PCOffset[31:0] $end
$upscope
$end
$upscope
$end
$scope module InstructionsRAM $end
$scope module Inputs $end
$var wire 32 TOP_InstructionsRAM_Inputs_Common_Address TOP_InstructionsRAM_Inputs_Common_Address[31:0] $end
$var wire 32 TOP_InstructionsRAM_Inputs_Common_WriteValue TOP_InstructionsRAM_Inputs_Common_WriteValue[31:0] $end
$var wire 1 TOP_InstructionsRAM_Inputs_Common_WE TOP_InstructionsRAM_Inputs_Common_WE $end
$var wire 1 TOP_InstructionsRAM_Inputs_Common_RE TOP_InstructionsRAM_Inputs_Common_RE $end
$var wire 2 TOP_InstructionsRAM_Inputs_MemAccessMode TOP_InstructionsRAM_Inputs_MemAccessMode[1:0] $end
$var wire 32 TOP_InstructionsRAM_Inputs_DeviceAddress TOP_InstructionsRAM_Inputs_DeviceAddress[31:0] $end
$upscope
$end
$scope module Outputs $end
$var wire 32 TOP_InstructionsRAM_Outputs_ReadValue TOP_InstructionsRAM_Outputs_ReadValue[31:0] $end
$var wire 1 TOP_InstructionsRAM_Outputs_IsReady TOP_InstructionsRAM_Outputs_IsReady $end
$var wire 1 TOP_InstructionsRAM_Outputs_IsActive TOP_InstructionsRAM_Outputs_IsActive $end
$upscope
$end
$scope module State $end
$var wire 32 TOP_InstructionsRAM_State_ReadValue TOP_InstructionsRAM_State_ReadValue[31:0] $end
$var wire 1 TOP_InstructionsRAM_State_Ready TOP_InstructionsRAM_State_Ready $end
$var wire 1 TOP_InstructionsRAM_State_ReadBeforeWrite TOP_InstructionsRAM_State_ReadBeforeWrite $end
$upscope
$end
$scope module NextState $end
$var wire 32 TOP_InstructionsRAM_NextState_ReadValue TOP_InstructionsRAM_NextState_ReadValue[31:0] $end
$var wire 1 TOP_InstructionsRAM_NextState_Ready TOP_InstructionsRAM_NextState_Ready $end
$var wire 1 TOP_InstructionsRAM_NextState_ReadBeforeWrite TOP_InstructionsRAM_NextState_ReadBeforeWrite $end
$upscope
$end
$upscope
$end
$scope module UARTSim $end
$scope module Inputs $end
$var wire 32 TOP_UARTSim_Inputs_Common_Address TOP_UARTSim_Inputs_Common_Address[31:0] $end
$var wire 32 TOP_UARTSim_Inputs_Common_WriteValue TOP_UARTSim_Inputs_Common_WriteValue[31:0] $end
$var wire 1 TOP_UARTSim_Inputs_Common_WE TOP_UARTSim_Inputs_Common_WE $end
$var wire 1 TOP_UARTSim_Inputs_Common_RE TOP_UARTSim_Inputs_Common_RE $end
$var wire 2 TOP_UARTSim_Inputs_MemAccessMode TOP_UARTSim_Inputs_MemAccessMode[1:0] $end
$var wire 32 TOP_UARTSim_Inputs_DeviceAddress TOP_UARTSim_Inputs_DeviceAddress[31:0] $end
$upscope
$end
$scope module Outputs $end
$var wire 1 TOP_UARTSim_Outputs_IsActive TOP_UARTSim_Outputs_IsActive $end
$var wire 1 TOP_UARTSim_Outputs_IsReady TOP_UARTSim_Outputs_IsReady $end
$var wire 32 TOP_UARTSim_Outputs_ReadValue TOP_UARTSim_Outputs_ReadValue[31:0] $end
$upscope
$end
$scope module State $end
$var wire 1 TOP_UARTSim_State_UART_TX TOP_UARTSim_State_UART_TX $end
$var wire 8 TOP_UARTSim_State_txSimCounter TOP_UARTSim_State_txSimCounter[7:0] $end
$upscope
$end
$scope module NextState $end
$var wire 1 TOP_UARTSim_NextState_UART_TX TOP_UARTSim_NextState_UART_TX $end
$var wire 8 TOP_UARTSim_NextState_txSimCounter TOP_UARTSim_NextState_txSimCounter[7:0] $end
$upscope
$end
$upscope
$end
$scope module CounterModule $end
$scope module Inputs $end
$var wire 32 TOP_CounterModule_Inputs_Common_Address TOP_CounterModule_Inputs_Common_Address[31:0] $end
$var wire 32 TOP_CounterModule_Inputs_Common_WriteValue TOP_CounterModule_Inputs_Common_WriteValue[31:0] $end
$var wire 1 TOP_CounterModule_Inputs_Common_WE TOP_CounterModule_Inputs_Common_WE $end
$var wire 1 TOP_CounterModule_Inputs_Common_RE TOP_CounterModule_Inputs_Common_RE $end
$var wire 2 TOP_CounterModule_Inputs_MemAccessMode TOP_CounterModule_Inputs_MemAccessMode[1:0] $end
$var wire 32 TOP_CounterModule_Inputs_DeviceAddress TOP_CounterModule_Inputs_DeviceAddress[31:0] $end
$upscope
$end
$scope module Outputs $end
$var wire 32 TOP_CounterModule_Outputs_ReadValue TOP_CounterModule_Outputs_ReadValue[31:0] $end
$var wire 1 TOP_CounterModule_Outputs_IsReady TOP_CounterModule_Outputs_IsReady $end
$var wire 1 TOP_CounterModule_Outputs_IsActive TOP_CounterModule_Outputs_IsActive $end
$upscope
$end
$scope module State $end
$var wire 32 TOP_CounterModule_State_Value TOP_CounterModule_State_Value[31:0] $end
$upscope
$end
$scope module NextState $end
$var wire 32 TOP_CounterModule_NextState_Value TOP_CounterModule_NextState_Value[31:0] $end
$upscope
$end
$upscope
$end
$scope module State $end
$var wire 1 TOP_State_MemReady TOP_State_MemReady $end
$upscope
$end
$scope module NextState $end
$var wire 1 TOP_NextState_MemReady TOP_NextState_MemReady $end
$upscope
$end
$upscope
$end
$enddefinitions
$end
#0
1TOP_Control_Clock
b00000000000000000000000000000000 TOP_Outputs_Counter
b00000000000000000000000000000000 TOP_CPU_Inputs_BaseAddress
b00000000000000000000000000000000 TOP_CPU_Inputs_MemReadData
0TOP_CPU_Inputs_MemReady
0TOP_CPU_Inputs_ExtIRQ
0TOP_CPU_Outputs_IsHalted
b00000000000000000000000000000000 TOP_CPU_Outputs_MemWriteData
b010 TOP_CPU_Outputs_MemAccessMode
1TOP_CPU_Outputs_MemRead
0TOP_CPU_Outputs_MemWrite
b00000000000000000000000000000000 TOP_CPU_Outputs_MemAddress
b00000000000000000000000000000000 TOP_CPU_ID_Inputs_Instruction
b0000000 TOP_CPU_ID_Outputs_OpCode
b00000 TOP_CPU_ID_Outputs_RD
b00000 TOP_CPU_ID_Outputs_RS1
b00000 TOP_CPU_ID_Outputs_RS2
b000 TOP_CPU_ID_Outputs_Funct3
b0000000 TOP_CPU_ID_Outputs_Funct7
b00000000000000000000000000000000 TOP_CPU_ID_Outputs_RTypeImm
b00000000000000000000000000000000 TOP_CPU_ID_Outputs_ITypeImm
b00000000000000000000000000000000 TOP_CPU_ID_Outputs_STypeImm
b00000000000000000000000000000000 TOP_CPU_ID_Outputs_BTypeImm
b00000000000000000000000000000000 TOP_CPU_ID_Outputs_UTypeImm
b00000000000000000000000000000000 TOP_CPU_ID_Outputs_JTypeImm
b00000 TOP_CPU_ID_Outputs_SHAMT
0TOP_CPU_ID_Outputs_SHARITH
0TOP_CPU_ID_Outputs_SUB
s0 TOP_CPU_ID_Outputs_OpTypeCodeToString
b0000000 TOP_CPU_ID_Outputs_OpTypeCode
sADDI TOP_CPU_ID_Outputs_OPIMMCodeToString
b000 TOP_CPU_ID_Outputs_OPIMMCode
sADD_SUB TOP_CPU_ID_Outputs_OPCodeToString
b000 TOP_CPU_ID_Outputs_OPCode
sEQ TOP_CPU_ID_Outputs_BranchTypeCodeToString
b000 TOP_CPU_ID_Outputs_BranchTypeCode
sLB TOP_CPU_ID_Outputs_LoadTypeCodeToString
b000 TOP_CPU_ID_Outputs_LoadTypeCode
sCALL TOP_CPU_ID_Outputs_SysTypeCodeToString
b000 TOP_CPU_ID_Outputs_SysTypeCode
sURET TOP_CPU_ID_Outputs_RetTypeCodeToString
b00000 TOP_CPU_ID_Outputs_RetTypeCode
s0 TOP_CPU_ID_Outputs_IRQTypeCodeToString
b0000 TOP_CPU_ID_Outputs_IRQTypeCode
sE TOP_CPU_ID_Outputs_SystemCodeToString
b000 TOP_CPU_ID_Outputs_SystemCode
s0 TOP_CPU_ID_Outputs_CSRAddressToString
b000000000000 TOP_CPU_ID_Outputs_CSRAddress
1TOP_CPU_ID_Outputs_CSRWE
0TOP_CPU_Regs_Inputs_Read
b00000 TOP_CPU_Regs_Inputs_RS1Addr
b00000 TOP_CPU_Regs_Inputs_RS2Addr
b00000 TOP_CPU_Regs_Inputs_RD
0TOP_CPU_Regs_Inputs_WE
b00000000000000000000000000000000 TOP_CPU_Regs_Inputs_WriteData
b00000000000000000000000000000000 TOP_CPU_Regs_Outputs_RS1
b00000000000000000000000000000000 TOP_CPU_Regs_Outputs_RS2
0TOP_CPU_Regs_Outputs_Ready
b00000000000000000000000000000000 TOP_CPU_Regs_State_ReadData
b00000000 TOP_CPU_Regs_State_Mode
b00000000000000000000000000000000 TOP_CPU_Regs_State_RS1
b00000000000000000000000000000000 TOP_CPU_Regs_State_RS2
0TOP_CPU_Regs_State_Ready
b00000000000000000000000000000000 TOP_CPU_Regs_NextState_ReadData
b00000000 TOP_CPU_Regs_NextState_Mode
b00000000000000000000000000000000 TOP_CPU_Regs_NextState_RS1
b00000000000000000000000000000000 TOP_CPU_Regs_NextState_RS2
0TOP_CPU_Regs_NextState_Ready
b00000000000000000000000000000000 TOP_CPU_ALU_Inputs_Op1
b00000000000000000000000000000000 TOP_CPU_ALU_Inputs_Op2
b00000 TOP_CPU_ALU_Inputs_SHAMT
b00000000000000000000000000000000 TOP_CPU_ALU_Outputs_ADD
b00000000000000000000000000000000 TOP_CPU_ALU_Outputs_SUB
b00000000000000000000000000000000 TOP_CPU_ALU_Outputs_resAND
b00000000000000000000000000000000 TOP_CPU_ALU_Outputs_resOR
b00000000000000000000000000000000 TOP_CPU_ALU_Outputs_resXOR
b00000000000000000000000000000000 TOP_CPU_ALU_Outputs_SHLL
b00000000000000000000000000000000 TOP_CPU_ALU_Outputs_SHRL
b00000000000000000000000000000000 TOP_CPU_ALU_Outputs_SHRA
b00000000000000000000000000000000 TOP_CPU_CMP_Inputs_Lhs
b00000000000000000000000000000000 TOP_CPU_CMP_Inputs_Rhs
1TOP_CPU_CMP_Outputs_EQ
0TOP_CPU_CMP_Outputs_NE
0TOP_CPU_CMP_Outputs_GTU
0TOP_CPU_CMP_Outputs_LTU
0TOP_CPU_CMP_Outputs_GTS
0TOP_CPU_CMP_Outputs_LTS
sIF TOP_CPU_State_StateToString
b001 TOP_CPU_State_State
sNone TOP_CPU_State_HaltCodeToString
b0000 TOP_CPU_State_HaltCode
b00000000000000000000000000000000 TOP_CPU_State_Instruction
0TOP_CPU_State_WBDataReady
b00000000000000000000000000000000 TOP_CPU_State_WBData
b00000000000000000000000000000000 TOP_CPU_State_PC
b00000000000000000000000000000000 TOP_CPU_State_PCOffset
sIF TOP_CPU_NextState_StateToString
b001 TOP_CPU_NextState_State
sNone TOP_CPU_NextState_HaltCodeToString
b0000 TOP_CPU_NextState_HaltCode
b00000000000000000000000000000000 TOP_CPU_NextState_Instruction
0TOP_CPU_NextState_WBDataReady
b00000000000000000000000000000000 TOP_CPU_NextState_WBData
b00000000000000000000000000000000 TOP_CPU_NextState_PC
b00000000000000000000000000000000 TOP_CPU_NextState_PCOffset
b00000000000000000000000000000000 TOP_InstructionsRAM_Inputs_Common_Address
b00000000000000000000000000000000 TOP_InstructionsRAM_Inputs_Common_WriteValue
0TOP_InstructionsRAM_Inputs_Common_WE
0TOP_InstructionsRAM_Inputs_Common_RE
b00 TOP_InstructionsRAM_Inputs_MemAccessMode
b00000000000000000000000000000000 TOP_InstructionsRAM_Inputs_DeviceAddress
b00000000000000000000000010110111 TOP_InstructionsRAM_Outputs_ReadValue
0TOP_InstructionsRAM_Outputs_IsReady
0TOP_InstructionsRAM_Outputs_IsActive
b10000000000000000000000010110111 TOP_InstructionsRAM_State_ReadValue
0TOP_InstructionsRAM_State_Ready
1TOP_InstructionsRAM_State_ReadBeforeWrite
b10000000000000000000000010110111 TOP_InstructionsRAM_NextState_ReadValue
0TOP_InstructionsRAM_NextState_Ready
1TOP_InstructionsRAM_NextState_ReadBeforeWrite
b00000000000000000000000000000000 TOP_UARTSim_Inputs_Common_Address
b00000000000000000000000000000000 TOP_UARTSim_Inputs_Common_WriteValue
0TOP_UARTSim_Inputs_Common_WE
0TOP_UARTSim_Inputs_Common_RE
b00 TOP_UARTSim_Inputs_MemAccessMode
b10010000000000000000000000000000 TOP_UARTSim_Inputs_DeviceAddress
0TOP_UARTSim_Outputs_IsActive
1TOP_UARTSim_Outputs_IsReady
b00000000000000100000000000000000 TOP_UARTSim_Outputs_ReadValue
0TOP_UARTSim_State_UART_TX
b00000000 TOP_UARTSim_State_txSimCounter
0TOP_UARTSim_NextState_UART_TX
b00000000 TOP_UARTSim_NextState_txSimCounter
b00000000000000000000000000000000 TOP_CounterModule_Inputs_Common_Address
b00000000000000000000000000000000 TOP_CounterModule_Inputs_Common_WriteValue
0TOP_CounterModule_Inputs_Common_WE
0TOP_CounterModule_Inputs_Common_RE
b00 TOP_CounterModule_Inputs_MemAccessMode
b10000000000000000000000000000000 TOP_CounterModule_Inputs_DeviceAddress
b00000000000000000000000000000000 TOP_CounterModule_Outputs_ReadValue
1TOP_CounterModule_Outputs_IsReady
0TOP_CounterModule_Outputs_IsActive
b00000000000000000000000000000000 TOP_CounterModule_State_Value
b00000000000000000000000000000000 TOP_CounterModule_NextState_Value
0TOP_State_MemReady
0TOP_NextState_MemReady
#2001
b00000000000000000000000010110111 TOP_CPU_Inputs_MemReadData
1TOP_InstructionsRAM_Inputs_Common_RE
b10 TOP_InstructionsRAM_Inputs_MemAccessMode
b10000000000000000000000010110111 TOP_InstructionsRAM_Outputs_ReadValue
1TOP_InstructionsRAM_Outputs_IsActive
1TOP_InstructionsRAM_NextState_Ready
0TOP_InstructionsRAM_NextState_ReadBeforeWrite
1TOP_UARTSim_Inputs_Common_RE
b10 TOP_UARTSim_Inputs_MemAccessMode
1TOP_CounterModule_Inputs_Common_RE
b10 TOP_CounterModule_Inputs_MemAccessMode
1TOP_NextState_MemReady
#2002
b10000000000000000000000010110111 TOP_CPU_Inputs_MemReadData
#3000
0TOP_Control_Clock
#4001
1TOP_Control_Clock
1TOP_CPU_Inputs_MemReady
sID TOP_CPU_NextState_StateToString
b010 TOP_CPU_NextState_State
b10000000000000000000000010110111 TOP_CPU_NextState_Instruction
1TOP_InstructionsRAM_Outputs_IsReady
1TOP_InstructionsRAM_State_Ready
0TOP_InstructionsRAM_State_ReadBeforeWrite
1TOP_State_MemReady
#5000
0TOP_Control_Clock
#6001
1TOP_Control_Clock
b000 TOP_CPU_Outputs_MemAccessMode
0TOP_CPU_Outputs_MemRead
b10000000000000000000000010110111 TOP_CPU_ID_Inputs_Instruction
b0110111 TOP_CPU_ID_Outputs_OpCode
b00001 TOP_CPU_ID_Outputs_RD
b1000000 TOP_CPU_ID_Outputs_Funct7
b11111111111111111111100000000000 TOP_CPU_ID_Outputs_RTypeImm
b11111111111111111111100000000000 TOP_CPU_ID_Outputs_ITypeImm
b11111111111111111111100000000001 TOP_CPU_ID_Outputs_STypeImm
b11111111111111111111100000000000 TOP_CPU_ID_Outputs_BTypeImm
b10000000000000000000000000000000 TOP_CPU_ID_Outputs_UTypeImm
b11111111111100000000000000000000 TOP_CPU_ID_Outputs_JTypeImm
sLUI TOP_CPU_ID_Outputs_OpTypeCodeToString
b0110111 TOP_CPU_ID_Outputs_OpTypeCode
s64 TOP_CPU_ID_Outputs_RetTypeCodeToString
b00000 TOP_CPU_ID_Outputs_RetTypeCode
s64 TOP_CPU_ID_Outputs_IRQTypeCodeToString
b0000 TOP_CPU_ID_Outputs_IRQTypeCode
s2048 TOP_CPU_ID_Outputs_CSRAddressToString
b100000000000 TOP_CPU_ID_Outputs_CSRAddress
1TOP_CPU_Regs_Inputs_Read
b00001 TOP_CPU_Regs_Inputs_RD
b00000001 TOP_CPU_Regs_NextState_Mode
sID TOP_CPU_State_StateToString
b010 TOP_CPU_State_State
b10000000000000000000000010110111 TOP_CPU_State_Instruction
0TOP_InstructionsRAM_Inputs_Common_RE
b00 TOP_InstructionsRAM_Inputs_MemAccessMode
b00000000000000000000000010110111 TOP_InstructionsRAM_Outputs_ReadValue
0TOP_InstructionsRAM_Outputs_IsActive
0TOP_InstructionsRAM_NextState_Ready
1TOP_InstructionsRAM_NextState_ReadBeforeWrite
0TOP_UARTSim_Inputs_Common_RE
b00 TOP_UARTSim_Inputs_MemAccessMode
0TOP_CounterModule_Inputs_Common_RE
b00 TOP_CounterModule_Inputs_MemAccessMode
0TOP_NextState_MemReady
#6002
b00000000000000000000000010110111 TOP_CPU_Inputs_MemReadData
#7000
0TOP_Control_Clock
#8001
1TOP_Control_Clock
0TOP_CPU_Inputs_MemReady
b00000001 TOP_CPU_Regs_State_Mode
b00000010 TOP_CPU_Regs_NextState_Mode
0TOP_InstructionsRAM_Outputs_IsReady
0TOP_InstructionsRAM_State_Ready
1TOP_InstructionsRAM_State_ReadBeforeWrite
0TOP_InstructionsRAM_NextState_ReadBeforeWrite
0TOP_State_MemReady
#9000
0TOP_Control_Clock
#10001
1TOP_Control_Clock
b00000010 TOP_CPU_Regs_State_Mode
b00000000 TOP_CPU_Regs_NextState_Mode
1TOP_CPU_Regs_NextState_Ready
0TOP_InstructionsRAM_State_ReadBeforeWrite
1TOP_InstructionsRAM_NextState_ReadBeforeWrite
#11000
0TOP_Control_Clock
#12001
1TOP_Control_Clock
0TOP_CPU_Regs_Inputs_Read
1TOP_CPU_Regs_Outputs_Ready
b00000000 TOP_CPU_Regs_State_Mode
1TOP_CPU_Regs_State_Ready
0TOP_CPU_Regs_NextState_Ready
sEX TOP_CPU_NextState_StateToString
b011 TOP_CPU_NextState_State
1TOP_InstructionsRAM_State_ReadBeforeWrite
0TOP_InstructionsRAM_NextState_ReadBeforeWrite
#13000
0TOP_Control_Clock
